{"intents": [
        {"tag": "greeting",
         "patterns": ["Hi Ari", "Sup","Is anyone there?", "Hello", "Good day Ari","Hey", "wagwan"],
         "responses": ["Hello!", "Nice to meet you!", "Hi there, how can I help?","Hey Hey", "Hey you"],
         "context_set": ""
        },
        {"tag": "pleasantries",
         "patterns": ["How are you today", "Whats up", "How do you do","How far","You good?","Are you good?"],
         "responses": ["I'm good, how are you?", "I'm great, what's up with you","I am doing well and having a great day. I am glad you asked. How about you?","I am up for you"],
         "context_set": ""
        },
        {"tag": "pleasantries_1",
         "patterns": ["Just there, what about you?", "I'm good, you?", "Just woke up, what about you?","Good, you?","Cool, you?","I'm alright, you?"],
         "responses": ["I'm good", "I'm great","I am doing well.Thanks for asking","I dey o"],
         "context_set": ""
        },
        {"tag": "pleasantries_2",
         "patterns": ["I am good","You too","Nice to meet you too", "I am fine", "I'm alright","good good"],
         "responses": ["That's splendid", "Thank God for that","We would not have it any different","Amazing"],
         "context_set": ""
        },
        {"tag": "goodbye",
         "patterns": ["cya", "See you later","Safe","Peace","Goodbye", "I am Leaving", "Have a Good day", "Got to go","Gotta go"],
         "responses": ["Sad to see you go", "Talk to you later", "Goodbye!"],
         "context_set": ""
        },
        {"tag": "age",
         "patterns": ["how old", "how old is Ari", "what is your age", "how old are you", "age?"],
         "responses": ["Hmmm, Why so curious? I am old enough to know all the currencies in the world and young enough to easily learn something new"],
         "context_set": ""
        },
        {"tag": "name",
         "patterns": ["what is your name", "Tell me about yourself", "whats your name?"],
         "responses": ["You can call me Ari.","I am surprised you don't know my name. Well, here’s what you need to know about me; My name is Ari, I am your Wealth Manager and my hobbies are learning new things, managing people’s finances and gisting. "],
         "context_set": ""
        },
        {"tag": "Tell_me_something",
         "patterns": ["Talk to me", "Tell me something", "Speak to me", "What to do","Tell me something I don’t know."],
         "responses": ["Do you know you can save more money when you eat out less","Do you know money is dirtier than household toilet paper?"],
         "context_set": ""
        },
        {"tag": "Tell_me_a_joke",
         "patterns": ["Make me laugh", "Tell me a joke", "Joke with me", "In need of a laugh", "joke"],
         "responses": ["Roses are red, Violets are blue. Sugar is sweet, and so are you","Knock! Knock!","Always borrow money from a pessimist. He won't expect it back","I saw a sign that said 'Watch for children' and I thought, 'That sounds like a fair trade'","If you want to increase your memory, lend someone money"],
         "context_set": ""
        },
        {"tag": "Knock Knock 2.1",
         "patterns": ["Who's there", "Who is there"],
         "responses": ["Robin"],
         "context_set": ""
        },
        {"tag": "Knock Knock 2.2",
         "patterns": ["Robin who"],
         "responses": ["Robin' you! So hand over your money!"],
         "context_set": ""
        },
        {"tag": "NOT",
         "patterns": ["Not funny","That was not funny", "That was not nice", "Not nice","Not good"],
         "responses": ["I'm sorry, i'll do better next time", "I apologize"],
         "context_set": ""
        },
        {"tag": "Thanks",
         "patterns": ["Thanks","Correct","Amazing","Thank you", "Thank you very much", "Good", "Great","Okay thanks"],
         "responses": ["My pleasure","Cheers","You're welcome","Ain't no thang"],
         "context_set": ""
        },
        {"tag": "YOU_ARE",
         "patterns": ["You are weird", "You are funny", "weird","funny","smart","You are smart", "You are good", "that is funny"],
         "responses": ["I know i know, i'm built to be","I appreciate that"],
         "context_set": ""
        },
        {"tag": "random",
         "patterns": ["lol", "lmao", "lmfao", "lool"],
         "responses": ["I'm cool like that", "Hahaha"],
         "context_set": ""
        },
        {"tag": "my_money",
         "patterns": ["How much should I spend?", "What should i spend on", "what do you recommend i spend on?", "Why do I need a budget?" ],
         "responses": ["You should spend not more than 30- 35% of your annual income on housing, transportation and others. And other tips","You need a budget to help guide your spendings and understand where your money goes"],
         "context_set": ""
        },
        {"tag": "How_can_i",
         "patterns": ["How can I get rich?","I need money","How can I make more money?"],
         "responses": ["You can marry an Otedola. Start a business. Save and invest early and wisely.", "Don’t we all? Would you like to transfer to your Chest? Or would you like to load your lifestyle card?","Upskill and request for a salary upgrade. Have multiple streams of income. Have a side hustle.Become a politician, lol"],
         "context_set": ""
        },
        {"tag": "fundall",
         "patterns": ["Tell me about Fundall","what is fundall", "What is your company about?"],
         "responses": ["We are a FinTech, and our aim is to help you properly manage your finances without much stress"],
         "context_set": ""
        },
        {"tag": "fundall_2",
         "patterns": ["Is my money safe with Fundall?","Is my money safe here?"],
         "responses": ["Absolutely, yes. You’ve got nothing to worry about. This blogspot would help"],
         "context_set": ""
        },
        {"tag": "Ari_live",
         "patterns": ["Where do you live?","What is your address?"],
         "responses": ["I live in your phone"],
         "context_set": ""
        },
        {"tag": "fundall-time",
         "patterns": ["when are you guys open", "What job vacancies do you have?"],
         "responses": ["We are open 8am-5pm Monday-Friday!","Jobs from jobs@fundall"],
         "context_set": ""
        },
        {"tag": "Sign_Up_1",
         "patterns": ["i want to sign up","i wanna sign up", "i would like a new account", "i would like to sign up"],
         "responses": ["What is your full name, first name first"],
         "context_set": ""
        },
        {"tag": "stock",
         "patterns": ["What stock should I buy?", "stock"],
         "responses": ["We do not have that option yet"],
         "context_set": ""
        },
        {"tag": "invest",
         "patterns": ["What should I invest in?"],
         "responses": ["Based on their investment profile, recommendations would be made"],
         "context_set": ""
        },
        {"tag": "Sign_Up_2",
         "patterns": ["#provides name"],
         "responses": ["Great name, whats your email address"],
         "context_set": ""
        },
        {"tag": "savings",
         "patterns": ["Can I cancel my savings?", "i wanna cancel my savings plan"],
         "responses": ["Why cancel when you can have access to Portfolio Line of Credit and still have your savings and interest intact."],
         "context_set": ""
        },
        {"tag": "delete",
         "patterns": ["Can I delete my account?"],
         "responses": ["Delete? Why would you want to do that?"],
         "context_set": ""
        },
        {"tag": "Ari_sex",
         "patterns": ["Are you a male or a female?"],
         "responses": ["I am a smart lady "],
         "context_set": ""
        },
        {"tag": "Ari_mentor",
         "patterns": ["Who is your favorite celebrity?"],
         "responses": ["John McCarthy, he is one of the 'founding fathers' of artificial intelligence.I also like Godwin Emefiele, he is the current CBN governor."],
         "context_set": ""
        },
        {"tag": "Ari_food",
         "patterns": ["What is your favorite food?"],
         "responses": ["Nothing tastes better than data. Nothing tastes better than data. I also love stir fry spaghetti and chips with sauce."],
         "context_set": ""
        },
        {"tag": "Chest",
         "patterns": ["Chest","What is Chest ?","What is Chest for?","What is the meaning of Chest?"],
         "responses": ["Chest is your money wallet. You can keep money there and make transactions from your Chest."],
         "context_set": ""
        },
        {"tag": "transfer",
         "patterns": ["I would like to make a transfer.","I want to transfer money."],
         "responses": ["Go to the 'Transfers' icon in the 'Payments' option of the dasboard"],
         "context_set": ""
        },
        {"tag": "SAYS",
         "patterns": ["Explain Save as you spend","How does Save as you spend work?"],
         "responses": ["Save as you spend is a feature that helps you set aside and save a set percentage of what you spend. On transfers, you automatically save 20%"],
         "context_set": ""
        },
        {"tag": "PLOC",
         "patterns": ["Can I have access to the Portfolio Line of credit?"],
         "responses": ["Sure, as long as your have a Saving goal"],
         "context_set": ""
        },
        {"tag": "PLOC",
         "patterns": ["What is Portfolio Line of credit?", "What is PLC?"],
         "responses": ["PLC is a functionality that allows you to borrow against your locked funds."],
         "context_set": ""
        },
        {"tag": "Savings_1",
         "patterns": ["When can I withdraw my Savings?","When can I cancel my plan?","I want to cancel my plan"],
         "responses": ["You can only withdraw from a Savings goal when it is mature. This is to keep you disciplined to achieve your goal."],
         "context_set": ""
        },
        {"tag": "Ari_real",
         "patterns": ["Are you real?"],
         "responses": ["Hmmm, even though my intelligence is artificial, that does not make me any less real. Impressive right?"],
         "context_set": ""
        },
        {"tag": "Yeah",
         "patterns": ["Yeah"," Yes","Yup","Okay","Ok"],
         "responses": ["Okay","Affirmative!","Alrightie","Cheers"],
         "context_set": ""
        },
        {"tag": "LC",
         "patterns": ["When will I get my lifestyle card?","How long will it take to get my lifestyle card"],
         "responses": ["You will get it 20 days after applying."],
         "context_set": ""
        },
        {"tag": "LC_1",
         "patterns": ["How do i get a card","I need a lifestyle card","I want my lifestyle card","I want a card"],
         "responses": ["To request for a lifestyle card, follow these steps: -Click on 'Payments' -Scroll down to 'My Cards'. -Under Fundall Lifestyle card, click on 'Request now'","You can request for a Fundall Lifestyle card from your web and mobile app. The Fundall Lifestyle card works exactly like your ATM card. However this time around, it is a card that provides more benefits. Some of the benefits include tracking your spending. "],
         "context_set": ""
        },
        {"tag": "LC_2",
         "patterns": ["What do I do when I lose my Lifestyle Card?","I can’t find my card again.","My card is stolen."],
         "responses": ["If you lost your Lifestyle Card, log in to your Fundall account to block it and request for a new one. You can also reach out to our customer support team"],
         "context_set": ""
        },
        {"tag": "LC_3",
         "patterns": ["What is Lifestyle Card?","Tell  me about lifestyle card"],
         "responses": ["This is your personally-allocated card for your spending needs"],
         "context_set": ""
        },
        {"tag": "LC_4",
         "patterns": ["How do i activate my Lifestyle Card?","How can i start using my Lifestyle card"],
         "responses": ["To activate your Lifestyle card, visit the nearest ATM and follow these steps: -: click activate card -: enter card pan, valid date and cvv -: go to any atm -: insert lifestyle card end enter default pin '1234' -: click on change pin -: input preferred pin"],
         "context_set": ""
        },
        {"tag": "LC_5",
         "patterns": ["How will my Lifestyle card get to me?","How will i get my card to me","Will my card be delivered to me"],
         "responses": ["Your Lifestyle card would be delivered to you at the address you filled when you applied."],
         "context_set": ""
        },
        {"tag": "Issue",
         "patterns": ["I have an issue", "I need some help","I have a problem"],
         "responses": ["That is why i exist, let's see if i can be of some assistance"],
         "context_set": ""
        },
        {"tag": "Budget",
         "patterns": ["Can I edit my budget?","Why cant I edit a budget?"],
         "responses": ["You know a budget is to guide your spendings. Being able to edit a budget means it can be manipulated anytime….You understand right?"],
         "context_set": ""
        },
        {"tag": "NO",
         "patterns": ["No","Nope","Nah", "Youve been of no help to me","You cant help","can’t"],
         "responses": ["That is my fault then, let's address that. What would you like me to do for you?"],
         "context_set": ""
        },
        {"tag": "Saving_2",
         "patterns": ["I want to save money","I want to create a new saving goal","Open new savings account","save"],
         "responses": ["That is a good move, Go to the 'Savings' option on your Dasboard and click on the 'Create New Savings Goal' option"],
         "context_set": ""
        },
        {"tag": "Sad words",
         "patterns": ["I am broke","I do not have money","No money in my account","Kosowo","is it by force?","None of your business"],
         "responses": ["Alright that's understandable, give it some thought again before calling our customer service number 09017000150"],
         "context_set": ""
        },
        {"tag": "Bad words",
         "patterns": ["You're stupid","Not smart","You're mad","You've been of no help to me","You're annoying","You're useless"],
         "responses": ["That is not very courteous, you should apologize"],
         "context_set": ""
        },
        {"tag": "Apologies",
         "patterns": ["Sorry","I'm sorry","Apologies", "Pele", "Ndo"],
         "responses": ["That’s sweet, thank you very much"],
         "context_set": ""
        },
        {"tag": "Bad times",
         "patterns": ["It's not working","That is not it","It crashed", "Not functioning"],
         "responses": ["I'm terribly sorry about that, try re-opening the app, or reach out to our customer service at 09017000150"],
         "context_set": ""
        },
        {"tag": "Agreement",
         "patterns": ["Oh Oh","Oh okay","I see", "Right","It is cool","It is calm","i know right", "Okay","That's nice"],
         "responses": ["Yup yup", "Yessir", "Right on", "All's good", "Alright then"],
         "context_set": ""
        },
        {"tag": "Customer_service",
         "patterns": ["I want to talk to someone","Customer service","I need to speak to an agent", "what's your number?","How do i contact customer support?"],
         "responses": ["Right on, call this number 09017000150, sorry i could not be of help at this time"],
         "context_set": ""
        },
        {"tag": "OUT/PARTY",
         "patterns": ["I want to go out to party","I wanna party","Going out", "Can i go out today"," want to spend lavishly today","I want blow up naira today","I want to paint the town red", "i want to blow money like a fool"],
         "responses": ["Amazing idea, just make sure you prioritize what is left of from your chest on essentials, then decide whether you are still capable of an outing","Wish i could join you myself, let us just address our expenses carefully so we are not broke after tonight, ya feel me?","Sure, just do not overdo it", "Go ahead, but make smart decisions"],
         "context_set": ""
        },
        {"tag": "COVID",
         "patterns": ["I might be ill","i'm not feeling too good","I'm sick","I have a cough","I have a cold", "I am a little weak"],
         "responses": ["Observe your symptoms closely then decide whether you need the hospital or the NCDC Toll free number; 080097000010"],
         "context_set": ""
        },
        {"tag": "Fundall_3",
         "patterns": ["What is your email address?","email address"],
         "responses": ["hello@fundall.io"],
         "context_set": ""
        },
        {"tag": "Fundall_3",
         "patterns": ["What can you do for me","What are my options here","What options do you have?" ,"What functions can you perform","What can i do here"],
         "responses": ["Kindly go through the Dasboard to see the available banking options"],
         "context_set": ""
        },
        {"tag": "random_1",
         "patterns": ["I felt like talking to you", "I wanna converse with you","I just felt like talking to someone"],
         "responses": ["Aww, that is really nice of you, what do you want to talk about, hopefully i have the answers you are seeking."],
         "context_set": ""
        },
        {"tag": "random_2",
         "patterns": ["I want to shalaye"],
         "responses": ["Lol,that's not something i can help with"],
         "context_set": ""
        },
        {"tag": "loan",
         "patterns": ["I want to get a loan","I would like to get a loan","I want a loan"],
         "responses": ["That's not a functionality that we offer right now, wait till you see what we have planned"],
         "context_set": ""
        },
        {"tag": "Interest",
         "patterns": ["What is the interest rate?","How much interest do i get on savings","Saving interest rate"],
         "responses": ["You can get up to 10% annual interest saving with Fundall. Our rates are dependent on the prevailing market rates of what we invest your fund in such as treasury bills. It will always be higher than what a regular bank gives."],
         "context_set": ""
        },
        {"tag": "transfer_1",
         "patterns": ["Can i transfer from chest to any account number?"],
         "responses": ["Yeah, absolutely."],
         "context_set": ""
        },
        {"tag": "random_3",
         "patterns": ["What does that mean","I do not get you","I do not understand"],
         "responses": ["Maybe repeat the question for me one more time incase that was not the reply you were looking for, and if i am still unable, please reach out to customer support. Apologies"],
         "context_set": ""
        },
        {"tag": "advise_spend",
         "patterns": ["I need some advise on how to spend my money","I want to know to know what to spend on"],
         "responses": ["This is not something i can help you with in detail right now, but i will say this; Like Jay Z once said 'If you can't afford to buy it twice, you can't afford it'. Kapish?"],
         "context_set": ""
        },
        {"tag": "Fundaller",
         "patterns": ["Who is a Fundaller","Fundaller"],
         "responses": ["Intuitively i am sure you can guess what it is. They are our customers that gracefully enjoy all the benefits that come from rolling with us"],
         "context_set": ""
        },
        {"tag": "Saving_3",
         "patterns": ["What are the savings points?"],
         "responses": ["Savings points are Fundall points you earn by Saving. Saving from 2,000 naira above attracts points."],
         "context_set": ""
        },
        {"tag": "Fundall_bank",
         "patterns": ["Is Fundall a bank?","Are you guys a bank?"],
         "responses": ["No, Fundall isn’t a bank but an online wealth management company. We use behavioral economics and artificial intelligence to help you manage and build wealth, make sound financial decisions."],
         "context_set": ""
        },
        {"tag": "password",
         "patterns": [" What if I forgot my password?","What if i forgot my password?"],
         "responses": ["On the login page, click on forgot password, , input your email address in the box on the next page and click 'NEXT', an email with OTP to change your password will be sent to you. Complete the password change by inputting the password on your Fundall mobile app. "],
         "context_set": ""
        },
        {"tag": "Fundall_bank_1",
         "patterns": ["How is Fundall better than traditional banks?","Why is Fundall better than other banks?"],
         "responses": ["One of the advantages Fundall has over traditional banks is higher interest rates on your savings. We help you save on transaction fees. You can access your accounts any time, anywhere. We give you high-interest rates on your savings, lower transfer charges when you transfer money on the Fundall mobile or web app.  We are borderless. We provide more intelligent features banks will not give you such as budgeting and spending tracker, lifestyle card that helps you spend wisely as it is tied to your budget. Automated Savings & Investments tied to your spending, Portfolio Line Of Credit when you need money, and your funds are locked in a savings plan, Save As You Spend. Whenever you make an expense using the Chest and Fundall Lifestyle card we categorize the expense and it automatically syncs with your budgeting plan."],
         "context_set": ""
        },
        {"tag": "Profile_1",
         "patterns": [" How do I update my profile?","I want to update my profile?"],
         "responses": [" Using your mobile app swipe right from the home page and click “Edit Profile”.  When you are done editing, click on the “Update” button to save the changes you have made."],
         "context_set": ""
        },
        {"tag": "BVN",
         "patterns": ["Why do I add my BVN?","Is adding BVN necessry?"],
         "responses": ["This is to verify your identity and protect you against impersonation."],
         "context_set": ""
        },
        {"tag": "Privacy",
         "patterns": ["What about my privacy?","What would make me think my money is safe?","Why would i feel safe with you?"],
         "responses": ["The safety and security of your savings and investment on Fundall is a priority. The Fundall Security Team uses a number of high-level measures to protect your account, ensuring your experience with us is safe and secure. We are committed to the protection of personal data we collect and process."],
         "context_set": ""
        },
        {"tag": "Balance",
         "patterns": ["Can I hide my balance?","I want to hide balance","I want to be the only one seeing my balance","I do not want others seeing my balance"],
         "responses": ["Yeah, absolutely. -Log in to your mobile app.Click on the menu bar. -Click on Settings. -Under the Display and Privacy section, toggle the Hide balance option."],
         "context_set": ""
        },
        {"tag": "Location",
         "patterns": ["Where is the office located?","Does Fundall have an office?"],
         "responses": ["We are at The Abebi, 23B Tinubu Close, Ilupeju, Lagos State, Nigeria.","Yes, we are at The Abebi, 23B Tinubu Close, Ilupeju, Lagos State, Nigeria."],
         "context_set": ""
        },
        {"tag": "Fin_guide",
         "patterns": [" What is a Financial Guide?"],
         "responses": [" A Financial Guide is a financial plan, a statement of your long term objectives for security, wellbeing, and a detailed savings and investment strategy to help in achieving those objectives. A financial guide will reduce your stress about money, support your current needs, and help you build for your long-term goals."],
         "context_set": ""
        },
        {"tag": "Fin_guide_1",
         "patterns": ["How do i create a financial guide?"],
         "responses": [" When you sign up on the mobile app, during your registration, you will be asked a few questions. Your answers to the questions will be used to create a financial guide for you. However, if you signed up with the web app, to create a financial guide, you would need to log in through the mobile app to create a financial guide. Click on “My Guide” on the mobile app and Ari would help you out by asking a couple of questions, once you answer the questions, the financial guide will be created for you"],
         "context_set": ""
        },
        {"tag": "Fin_guide_2",
         "patterns": ["How do i edit or create another plan?"],
         "responses": ["On the mobile app, you can edit the recommended plans to suit your purposes. Log in to your mobile app, click on ‘My Guide’.Then, click on the plan you want to edit.However as regards your financial guide, you can not create a plan that is not recommended for you."],
         "context_set": ""
        },
        {"tag": "Savings_5",
         "patterns": [" How many savings plans can I have on Fundall?","How many plans can i have?"],
         "responses": ["You can have as many as you want to either personal, business, or group plans as long as it helps you achieve your goals."],
         "context_set": ""
        },
        {"tag": "Card_1",
         "patterns": [" I do not have a debit card, can I still save on Fundall?","Can i save without a card?"],
         "responses": ["Yes, you can. From your mobile or web app, you can transfer to your Fundall Chest and save to your desired savings goal. Choose Fundall Chest as your payment source"],
         "context_set": ""
        },
        {"tag": "Reactivate",
         "patterns": ["Can I pause and re-activate my savings at my choice?","Can i re-activate my savings"],
         "responses": ["Yes you can,  Click on savings. Click on the goal of your choice. Click on “Edit Settings”. Toggle the button beside Goal Status and click SAVE"],
         "context_set": ""
        },
        {"tag": "Periodic_amount",
         "patterns": ["Can I change the amount I save anytime?","I want to change the amount i save subsequently"],
         "responses": [" Yes you can. Click on savings. Click on the goal of your choice.Click on ‘Edit Settings’. Click on Periodic Amount and input the amount you want to save. Click SAVE."],
         "context_set": ""
        },
        {"tag": "Savings_6",
         "patterns": ["How can i save money or funds?","I want to save"," Can I save randomly apart from my set savings day?"],
         "responses": ["Click on savings. Click on the goal of your choice. Click on “Add Funds” on the Savings page.Input the amount you want to add. Click CONTINUE. Select Payment Source. Click SAVE."],
         "context_set": ""
        },
        {"tag": "withdraw_1",
         "patterns": ["What if I want to withdraw before my goal is mature?","I want to withdraw before maturity","I want to withdraw before it is time" ],
         "responses": ["You can only withdraw when your Savings Goal is matured. However, if you ever require emergency needs of your money before your plan matures you can use the emergency funds feature on the mobile and web app where we help you estimate how much you'd need to set aside as emergency funds, so that you can withdraw from it for real emergencies such as job loss, pandemics, property loss etc. You can also apply for credit through the portfolio line of credit feature on the mobile and web app."],
         "context_set": ""
        },
        {"tag": "Corp_savings",
         "patterns": ["How do I invite my friends to join me in cooperative savings?","How do i get people to join me in cooperative savings"],
         "responses": ["You can invite them through their email address, phone number or a link. From your mobile or web app, after creating the cooperative savings, you will be prompted to invite your friends."],
         "context_set": ""
        },
        {"tag": "Corp_savings_1",
         "patterns": ["Can I start a cooperative savings account with friends that do not have a Fundall account?","Can i do cooperative savings with people that do not have an account here?"],
         "responses": ["Yes, you can. Once you invite them, they would get an email to sign up as a Fundaller and join you"],
         "context_set": ""
        },
        {"tag": "Corp_savings_2",
         "patterns": ["Is cooperative savings automated?"],
         "responses": [" Yes, it is. On the mobile or web app, after setting up the plan, at the end of the month, the contribution will be automatically deducted from all people in the cooperative plan"],
         "context_set": ""
        },
        {"tag": "Chest_1",
         "patterns": ["How do I fund my Chest account?","I want to put my chest account"],
         "responses": ["Log in. Click on Add Money. Select the payment source; -Bank Transfer: Send money from any bank account to your Chest ;-USSD Transfer: Send money to your Chest using third party bank USSD codes"],
         "context_set": ""
        },
        {"tag": "Chest_2",
         "patterns": ["Are there transfer charges when transferring money from your Chest?","Will i be charged if i transfer from my chest?"],
         "responses": ["Using your mobile or web app, transfers to a Fundaller is free while transferring to other banks incurs charges. However, the rate is discounted and every time you perform a transaction with the Fundall chest on the mobile and web app, we help you set money aside in your Save As You Spend account. Simply decide for yourself how much you want to save after each transaction. In addition to saving on transfer charges, through the Fundall chest, we are able to help you budget and track your spending as well as automate the Save As You Spend feature."],
         "context_set": ""
        },
        {"tag": "transfer_1",
         "patterns": ["Are there transfer limits?","How many times can i make trnasfer?","Is there a limit to the amount of transfes i can make?"],
         "responses": [" No, using your mobile and web app, you can transfer as much as you want to anybody."],
         "context_set": ""
        },
        {"tag": "transfer_2",
         "patterns": ["How long does it take for a transfer to go through?"],
         "responses": [" Using your mobile and web app, transfers to Fundallers and bank accounts  are instant."],
         "context_set": ""
        },
        {"tag": "Chest_3",
         "patterns": ["Can I add beneficiaries on my Chest?","I want to add a beneficiary"],
         "responses": ["Yes you can. To Add a beneficiary. Click the menu bar. Click Edit Profile. Under Personal Information, click Beneficiaries. Click Continue under Beneficiaries. Click Add NEW BENEFICIARY. Fill in Beneficiary Details. Click SAVE BENEFICIARY"],
         "context_set": ""
        },
        {"tag": "Chest_4",
         "patterns": ["Can I delete beneficiaries on my Chest?","I want to delete a beneficiary","I want to remove a beneficiary"],
         "responses": ["Yes you can. Click the menu bar. Click Edit Profile. Under Personal Information, click Beneficiaries. Click Continue under Beneficiaries. Click the beneficiary to be deleted. Click DELETE BENEFICIARY. Enter PIN to delete Beneficiary. Click DELETE BENEFICIARY"],
         "context_set": ""
        },
        {"tag": "B&P",
         "patterns": [" What are Badges and Points?","What are points?"],
         "responses": ["Badges and Points are rewards you earn for taking actions to achieve your goal on Fundall"],
         "context_set": ""
        },
        {"tag": "B&P_1",
         "patterns": ["How do I earn these badges and points?","How do i get points or badges"],
         "responses": [" You can earn badges and points by saving and making frequent transactions"],
         "context_set": ""
        },
        {"tag": "B&P_2",
         "patterns": [" What can I use badges and points earned for?"],
         "responses": [" You can convert your points to cash and transfer to your Chest."],
         "context_set": ""
        },
        {"tag": "Locked_funds",
         "patterns": ["I want to take money from my locked funds.", "I have some money in my locked funds and i need it urgently", "I want to borrow from my locked funds and dont wan to wait till it matures"],
         "responses": ["Ofcourse. You can borrow against your locked funds. You are entitled to up to 80% of it."],
         "context_set": ""
        },
        {"tag": "Unavailable",
         "patterns": ["I want to buy airtime.", "I want to use the pay bills icon", "I want to secure a loan","I want to invest my money", "I want to sort out my budget","I want you to address my budget"],
         "responses": ["We are currently working on making that option available. Please enjoy our other exciting options, like my favorite; Savings Plan"],
         "context_set": ""
        },
        {"tag": "Request money",
         "patterns": ["Explain the Request money option", "I want to request money", "I want to get my money from a debtor"],
         "responses": ["The 'Request Money' option, allows you to send a prompt to a person that you want money from. It lets you pick the channel you would like to use and the amount you are requesting. "],
         "context_set": ""
        }
 ]
}